; Engine configuration file.
; It's best edited using the editor UI and not directly,
; since the parameters that go here are not all obvious.
;
; Format:
;   [section] ; section goes between []
;   param=value ; assign values to parameters

config_version=4

_global_script_classes=[ {
"base": "Spatial",
"class": "CelestialBody",
"language": "GDScript",
"path": "res://scenes/celestial_body/CelestialBody.gd"
}, {
"base": "Node",
"class": "Simulation",
"language": "GDScript",
"path": "res://Simulation.gd"
}, {
"base": "Spatial",
"class": "Universe",
"language": "GDScript",
"path": "res://scenes/universe/Universe.gd"
} ]
_global_script_class_icons={
"CelestialBody": "",
"Simulation": "",
"Universe": ""
}

[application]

config/name="Solar System"
run/main_scene="res://scenes/universe/Universe.tscn"
config/icon="res://icon.png"

[autoload]

Groups="*res://autolaods/Groups.gd"
PhysicsConstants="*res://autolaods/PhysicsConstants.gd"

[display]

window/size/width=1920
window/size/height=1080
window/size/borderless=true

[physics]

common/enable_pause_aware_picking=true

[rendering]

quality/filters/msaa=2
environment/default_environment="res://default_env.tres"
